…
## Merging three data sets

``` r
trash_wheel_data =
 bind_rows(mr_trash_wheel, prof_trash_wheel, gwy_trash_wheel) %>%
  janitor::clean_names()
trash_wheel_data
## # A tibble: 845 × 15
##    dumpster month  year date                weight_tons volume_cubic_yards
##       <dbl> <chr> <dbl> <dttm>                    <dbl>              <dbl>
##  1        1 May    2014 2014-05-16 00:00:00        4.31                 18
##  2        2 May    2014 2014-05-16 00:00:00        2.74                 13
##  3        3 May    2014 2014-05-16 00:00:00        3.45                 15
##  4        4 May    2014 2014-05-17 00:00:00        3.1                  15
##  5        5 May    2014 2014-05-17 00:00:00        4.06                 18
##  6        6 May    2014 2014-05-20 00:00:00        2.71                 13
##  7        7 May    2014 2014-05-21 00:00:00        1.91                  8
##  8        8 May    2014 2014-05-28 00:00:00        3.7                  16
##  9        9 June   2014 2014-06-05 00:00:00        2.52                 14
## 10       10 June   2014 2014-06-11 00:00:00        3.76                 18
## # ℹ 835 more rows
## # ℹ 9 more variables: plastic_bottles <dbl>, polystyrene <dbl>,
## #   cigarette_butts <dbl>, glass_bottles <dbl>, plastic_bags <dbl>,
## #   wrappers <dbl>, sports_balls <dbl>, homes_powered <dbl>,
## #   trash_wheel_data <dbl>
```
…
all_data =
  full_join(mci_df, amyloid_df, by = "id")
all_data
## # A tibble: 490 × 11
##       id current_age sex    education apoe4  age_at_onset baseline time_2 time_4
##    <dbl>       <dbl> <chr>      <dbl> <chr>         <dbl> <chr>    <chr>  <chr> 
##  1     3        62.5 female        16 carri…         66.8 0.10608… 0.108… 0.106…
##  2     5        66   female        16 non-c…         68.7 0.10795… 0.112… 0.115…
##  3     7        66.5 female        18 non-c…         74   0.11224… <NA>   0.104…
##  4    13        63.1 female        12 carri…         69   0.11030… 0.108… 0.108…
##  5    14        58.4 male          20 non-c…         66.2 <NA>     <NA>   <NA>  
##  6    18        67.8 female        16 non-c…         69.8 0.11413… 0.107… 0.110…
##  7    22        67.3 male          20 carri…         74.6 0.10932… <NA>   0.107…
##  8    26        64.8 male          20 carri…         71.1 0.10474… 0.110… 0.106…
##  9    30        66.3 male          12 non-c…         73.1 0.10931… 0.111… 0.107…
## 10    39        68.3 male          16 carri…         70.2 0.10442… <NA>   0.103…
## # ℹ 480 more rows
## # ℹ 2 more variables: time_6 <chr>, time_8 <chr>
```
…
